[gd_scene load_steps=4 format=2]

[ext_resource path="res://img/tiles/b_road.png" type="Texture" id=1]
[ext_resource path="res://src/Tile.gd" type="Script" id=2]

[sub_resource type="RectangleShape2D" id=1]
extents = Vector2( 125, 61.8584 )

[node name="RoadUp" type="Area2D"]
script = ExtResource( 2 )

[node name="Sprite" type="Sprite" parent="."]
scale = Vector2( 1, -1 )
texture = ExtResource( 1 )

[node name="Polygon" type="CollisionShape2D" parent="."]
position = Vector2( 0, -63 )
shape = SubResource( 1 )
